{
  "address": [
    {
      "address": "b126, dwarka, delhi, delhi, 110059",
      "id": 8
    },
    {
      "address": "9, Old China Bazar Street, Kolkata, West Bengal, 700001",
      "id": 9
    },
    {
      "address": "234 A, Chandni Plaza Sant Nagar, Delhi, Delhi, 110065",
      "id": 10
    },
    {
      "address": "D 27/a, Sardar Estate, Ajwa Road, Road No 3,Vadodara, Gujarat, 390019",
      "id": 11
    },
    {
      "address": "1st Fl, 82/86, Narayan Bhavan, 1/103, Perin Nariman St, Fort, Mumbai, Maharashtra, 400001",
      "id": 12
    },
    {
      "address": "M.g. Road, Opp. Ramji Ashar School,rajawadi, Ghatkoper (east), Mumbai, Maharashtra, 400075",
      "id": 13
    },
    {
      "address": "A-1, Trimulgherry, Hyderabad, Andhra Pradesh, 500015",
      "id": 14
    },
    {
      "address": "9, Rohtak Rd, Near Peera Garhi Chowk, Paschim Enclave, Delhi, Delhi, 110041",
      "id": 15
    },
    {
      "address": "145, 145,commstblr-36, Commercial Street, Bangalore, Karnataka, 560036",
      "id": 16
    },
    {
      "address": "239/F, Nakaha No 1, Basharatpur, Gorakhpur, Uttar Pradesh, 273004",
      "id": 17
    },
    {
      "address": "32, Inner Ring Road, Thiru Vi Ka Indl Estate, Ekkaduthangal, Chennai, Tamil Nadu, 600097",
      "id": 18
    },
    {
      "address": "473-1065, Oshinden, Nakatsu-shi, Oita",
      "id": 19
    },
    {
      "address": "6-2, Misaki-cho 3-chome, Chiyoda-ku, Tokyo",
      "id": 20
    },
    {
      "address": "165-1224, Sakae, Tsubetsu-cho Abashiri-gun, Hokkaido",
      "id": 21
    },
    {
      "address": "107-1144, Toyozumi, Oketo-cho Tokoro-gun, Hokkaido",
      "id": 22
    },
    {
      "address": "9, Old China Bazar Street, Kolkata, West Bengal, 700001",
      "id": 23
    },
    {
      "address": "9, Old China Bazar Street, Kolkata, West Bengal, 700001",
      "id": 24
    },
    {
      "address": "126,dwarka,delhi,110059",
      "id": 25
    },
    {
      "address": "9, Old China Bazar Street, Kolkata, West Bengal, 700001",
      "id": 26
    },
    {
      "address": "126,dwarka,delhi,110059",
      "id": 27
    },
    {
      "address": "9, Old China Bazar Street, Kolkata, West Bengal, 700001",
      "id": 28
    },
    {
      "address": "126,dwarka,delhi,110059",
      "id": 29
    },
    {
      "address": "asd, sdasd, asdas, asdasd, 0asdasd",
      "id": 30
    },
    {
      "address": "asd, asdasd, adasd, adad, 111",
      "id": 31
    },
    {
      "address": ", , , , 0",
      "id": 32
    },
    {
      "address": "asd, asda, asdasd, , 0",
      "id": 33
    },
    {
      "address": "9, Old China Bazar Street, Kolkata, West Bengal, 700001",
      "id": 34
    },
    {
      "address": "126,dwarka,delhi,110059",
      "id": 35
    },
    {
      "address": ", , , , 0",
      "id": 36
    },
    {
      "address": ", , , , 0",
      "id": 37
    }
  ]
}